<?xml version="1.0" encoding="UTF-8" standalone="no"?>
<!-- Created with Inkscape (http://www.inkscape.org/) -->

<svg
   xmlns:dc="http://purl.org/dc/elements/1.1/"
   xmlns:cc="http://creativecommons.org/ns#"
   xmlns:rdf="http://www.w3.org/1999/02/22-rdf-syntax-ns#"
   xmlns:svg="http://www.w3.org/2000/svg"
   xmlns="http://www.w3.org/2000/svg"
   xmlns:xlink="http://www.w3.org/1999/xlink"
   xmlns:sodipodi="http://sodipodi.sourceforge.net/DTD/sodipodi-0.dtd"
   xmlns:inkscape="http://www.inkscape.org/namespaces/inkscape"
   width="600"
   height="128"
   id="svg3681"
   version="1.1"
   inkscape:version="0.92.1 r15371"
   sodipodi:docname="deb-xfce-lov.svg">
  <defs
     id="defs3683">
    <clipPath
       clipPathUnits="userSpaceOnUse"
       id="clipPath4564">
      <use
         height="100%"
         width="100%"
         id="use4566"
         xlink:href="#g4528"
         y="0"
         x="0" />
    </clipPath>
  </defs>
  <sodipodi:namedview
     id="base"
     pagecolor="#444444"
     bordercolor="#666666"
     borderopacity="1.0"
     inkscape:pageopacity="0"
     inkscape:pageshadow="2"
     inkscape:zoom="1.4567652"
     inkscape:cx="297.91717"
     inkscape:cy="120.34595"
     inkscape:document-units="px"
     inkscape:current-layer="layer1"
     showgrid="false"
     fit-margin-top="0"
     fit-margin-left="0"
     fit-margin-right="0"
     fit-margin-bottom="0"
     inkscape:window-width="1366"
     inkscape:window-height="717"
     inkscape:window-x="0"
     inkscape:window-y="25"
     inkscape:window-maximized="1"
     showguides="true"
     inkscape:guide-bbox="true">
    <sodipodi:guide
       position="23.339382,61.780718"
       orientation="0,1"
       id="guide4585"
       inkscape:locked="false" />
  </sodipodi:namedview>
  <metadata
     id="metadata3686">
    <rdf:RDF>
      <cc:Work
         rdf:about="">
        <dc:format>image/svg+xml</dc:format>
        <dc:type
           rdf:resource="http://purl.org/dc/dcmitype/StillImage" />
        <dc:title></dc:title>
      </cc:Work>
    </rdf:RDF>
  </metadata>
  <g
     inkscape:label="Layer 1"
     inkscape:groupmode="layer"
     id="layer1"
     transform="translate(-501.31203,-430.03165)">
    <path
       style="fill:#ffffff;fill-opacity:1;stroke:none;stroke-width:4.51006699"
       d="m 770.5613,434.03165 a 60,60 0 0 0 -60,60 60,60 0 0 0 60,60 60,60 0 0 0 60,-60 60,60 0 0 0 -60,-60 z m 1.52527,13.67248 13.50586,12.28821 32.56164,0.78003 -14.98169,29.31885 10.13489,7.05322 -8.86962,2.94617 4.47326,7.52563 -23.77258,4.40735 -32.70447,15.0824 -5.76965,13.25318 -1.41541,-11.09803 -8.42834,6.87561 2.04711,-13.53149 -4.9237,-19.3927 -22.22534,-12.00623 20.58288,5.85572 37.73804,-17.16431 -7.37549,-22.50732 16.59485,10.44616 z"
       id="path3354"
       inkscape:connector-curvature="0" />
    <g
       id="g3372"
       transform="matrix(3.2,0,0,3.2,31.099267,-505.83432)"
       inkscape:export-filename="/ssh/nebula/public_html/temp/xubuntu/precise_logo/logo_bigsizes.png"
       inkscape:export-xdpi="92.220436"
       inkscape:export-ydpi="92.220436">
      <g
         transform="translate(0.44642857,-0.04464286)"
         id="g3368">
        <path
           sodipodi:type="inkscape:offset"
           inkscape:radius="-0.49817169"
           inkscape:original="M 355.71875 379.90625 C 355.68125 379.91125 355.65195 379.93505 355.59375 379.96875 C 355.47738 380.03605 355.39105 380.1111 355.34375 380.1875 C 354.55632 381.51387 354.58195 383.13517 354.28125 384.40625 A 0.41364053 0.41365909 0 0 0 354.28125 384.46875 C 354.13756 385.87984 353.5878 387.50263 354.0625 389.125 A 0.41364053 0.41365909 0 0 0 354.09375 389.15625 A 0.41364053 0.41365909 0 0 0 354.09375 389.21875 C 354.22466 389.44765 354.44007 389.6366 354.6875 389.6875 C 354.93495 389.7377 355.14523 389.6164 355.3125 389.5 C 355.61157 389.29182 355.7553 388.95103 355.8125 388.59375 L 355.875 388.59375 L 355.875 388.5 C 356.49625 386.05054 356.94871 383.449 356.78125 380.875 A 0.41364053 0.41365909 0 0 0 356.78125 380.8125 C 356.74305 380.58377 356.63856 380.41727 356.5 380.25 C 356.36183 380.08363 356.21445 379.88625 355.875 379.90625 A 0.41364053 0.41365909 0 0 0 355.8125 379.90625 C 355.7934 379.90825 355.75625 379.90125 355.71875 379.90625 z "
           style="fill:#ffffff;fill-opacity:1;stroke:none"
           id="path3366"
           d="m 355.83984,380.40234 c -0.0604,0.037 -0.0851,0.0689 -0.0703,0.0449 -0.6791,1.14846 -0.68514,2.65218 -0.99219,4.00195 a 0.4982215,0.4982215 0 0 1 0,0.0703 c -0.1505,1.47805 -0.63371,2.98202 -0.24609,4.40039 a 0.4982215,0.4982215 0 0 1 0.0391,0.0899 c 0.0721,0.0932 0.16294,0.17837 0.2168,0.18945 0.0403,0.008 0.10045,-0.0102 0.24023,-0.10742 0.15127,-0.1053 0.24855,-0.2987 0.29297,-0.57618 a 0.4982215,0.4982215 0 0 1 0.0859,-0.20898 c 0.60561,-2.40329 1.03769,-4.92777 0.87695,-7.39844 a 0.4982215,0.4982215 0 0 1 0,-0.0254 c -0.021,-0.11401 -0.0566,-0.18236 -0.16601,-0.31445 -0.0753,-0.0907 -0.12141,-0.13888 -0.14063,-0.15234 -0.0192,-0.0135 -0.003,-0.0158 -0.0723,-0.0117 a 0.4982215,0.4982215 0 0 1 -0.0645,-0.002 z" />
        <path
           sodipodi:type="inkscape:offset"
           inkscape:radius="-0.46676695"
           inkscape:original="M 361.71875 381.375 C 360.36735 381.97973 359.80389 383.48371 359.09375 384.40625 A 0.35934087 0.35935699 0 0 0 359.09375 384.46875 C 358.2047 386.04438 356.96957 387.70963 356.84375 389.75 C 356.84375 390.25018 357.15979 390.63145 357.5625 390.71875 C 357.94157 390.80055 358.42044 390.62675 358.65625 390.25 C 358.67445 390.23 358.64175 390.2093 358.65625 390.1875 C 360.33963 387.8744 361.59578 385.15579 362.625 382.53125 C 362.72864 382.28034 362.74863 382.0347 362.625 381.78125 C 362.50136 381.52707 362.16517 381.335 361.84375 381.375 A 0.35934087 0.35935699 0 0 0 361.78125 381.375 L 361.71875 381.375 z "
           style="fill:#ffffff;fill-opacity:1;stroke:none"
           id="path3364"
           d="m 361.90234,381.83789 a 0.46681363,0.46681363 0 0 1 -0.0508,0.004 c -1.04198,0.5071 -1.57789,1.73208 -2.29883,2.71679 a 0.46681363,0.46681363 0 0 1 -0.0527,0.13868 c -0.90784,1.60892 -2.06389,3.20366 -2.18555,5.06445 0.006,0.29418 0.17347,0.46224 0.34766,0.5 0.16423,0.0345 0.4648,-0.0716 0.58789,-0.25586 0.0107,-0.0266 0.002,-0.0534 0.0176,-0.0762 a 0.46681363,0.46681363 0 0 1 0.0117,-0.0176 c 1.64599,-2.26173 2.89002,-4.94442 3.91211,-7.55078 a 0.46681363,0.46681363 0 0 1 0.002,-0.008 c 0.0707,-0.17114 0.0746,-0.23837 0.0117,-0.36719 -0.0185,-0.0381 -0.20261,-0.1609 -0.30274,-0.14844 z"
           transform="translate(-0.49107143,-0.26785714)" />
      </g>
      <path
         id="path3302"
         d="m 345.66985,382.2774 c -0.16726,0.0311 -0.4161,0.1809 -0.59375,0.25 -0.62832,0.23837 -0.975,0.77698 -1.125,1.40625 -0.15274,0.64382 -0.10183,1.36084 0,2.09375 0.10181,0.73145 0.24752,1.48649 0.40625,2.0625 0.13645,0.49836 0.23415,0.7408 0.28125,0.90625 v 0.125 c 0,0.0545 -0.0261,0.05 -0.0625,0.0937 -0.02,0.0109 0.02,0.0625 0,0.0625 -0.0453,0.0346 -0.0999,0.0625 -0.15625,0.0625 -0.11101,0.007 -0.19778,-0.0334 -0.3125,-0.0625 -0.0782,-0.0181 -0.17995,-0.0807 -0.15625,-0.0625 -0.0363,-0.0218 -0.1013,-0.0243 -0.125,-0.0625 0,0.0146 0.0219,0.0143 0,-0.0312 -0.0254,-0.0473 -0.0537,-0.1664 -0.0937,-0.25 -0.0891,-0.18946 -0.15908,-0.40895 -0.28125,-0.6875 -0.24381,-0.55472 -0.55754,-1.23609 -0.90625,-1.875 -0.34999,-0.64145 -0.76223,-1.22354 -1.21875,-1.625 -0.22817,-0.20054 -0.50982,-0.40155 -0.78125,-0.46875 -0.26199,-0.0655 -0.57287,-0.01 -0.84375,0.125 -0.69997,0.38836 -1.09619,1.02422 -1.25,1.6875 -0.15456,0.67346 -0.0815,1.44899 0.0312,2.125 0.11454,0.67454 0.29189,1.23077 0.40625,1.6875 0.049,0.19254 0.1087,0.37235 0.125,0.46875 0,0.0955 -0.0389,0.3448 -0.0625,0.4375 -0.11818,0.40928 -0.40559,1.09375 -0.40625,1.09375 0,0 -5.45294,14.48293 6.25,13.46875 0.0964,-0.007 0.31535,-0.0625 0.40625,-0.0625 2.29827,-0.46272 4.47308,-1.15769 6.40625,-1.9375 0.3798,-0.182 0.87805,-0.36282 1.4375,-0.625 1.11885,-0.52418 2.52451,-1.19587 3.875,-1.9375 1.35103,-0.74219 2.60454,-1.533 3.5625,-2.375 0.9596,-0.84327 1.65997,-1.76731 1.53125,-2.6875 -0.20364,-1.48345 -1.18879,-2.58587 -2.5,-3.4375 -1.31613,-0.85473 -2.95728,-1.44464 -4.59375,-1.875 -1.63576,-0.43018 -3.2241,-0.78002 -4.4375,-0.96875 -0.60652,-0.0945 -1.1749,-0.122 -1.53125,-0.1875 -0.10544,-0.0181 -0.16175,-0.0443 -0.21875,-0.0625 -0.0307,-0.004 -0.0334,-0.0131 -0.0625,-0.0312 -0.0363,-0.0218 -0.1031,-0.0243 -0.125,-0.0625 -0.02,-0.0363 0,-0.0832 0,-0.125 0,-0.0163 -1.7e-4,-0.0407 0,-0.0625 v -0.90625 c -0.02,-0.748 -0.064,-1.73553 -0.21875,-2.65625 -0.15637,-0.92455 -0.39754,-1.80879 -0.90625,-2.40625 -0.30235,-0.35545 -0.73038,-0.5887 -1.25,-0.625 -0.15636,-0.0182 -0.3311,-0.0309 -0.5,0 z"
         style="fill:#ffffff;fill-opacity:1;stroke:none"
         inkscape:connector-curvature="0" />
    </g>
    <path
       transform="matrix(2,0,0,2,-501.90298,-416.33157)"
       clip-path="url(#clipPath4564)"
       sodipodi:nodetypes="cccccccccccccccccccccc"
       inkscape:connector-curvature="0"
       id="path4507"
       d="m 450.7883,459.09036 18.73069,-1.36037 21.91214,6.51763 32.1056,-9.82577 -3.59419,-18.94016 12.25211,10.19269 -3.67535,-17.00155 9.57813,11.34951 26.08527,4.09686 -15.07798,22.05275 7.41213,6.76828 -7.43333,1.43096 2.81464,6.54748 -19.55972,1.02241 -27.84437,8.6842 -6.01072,10.0745 0.0131,-9.10221 -7.4852,4.64833 3.0472,-10.69683 -1.9458,-16.16505 -23.73642,-8.65277 z"
       style="fill:#000000;fill-rule:evenodd;stroke:none;stroke-width:0.97162241px;stroke-linecap:butt;stroke-linejoin:miter;stroke-opacity:1" />
    <text
       xml:space="preserve"
       style="font-style:normal;font-variant:normal;font-weight:normal;font-stretch:normal;font-size:85.33333588px;line-height:25px;font-family:'DejaVu Sans';-inkscape-font-specification:'DejaVu Sans';letter-spacing:0px;word-spacing:0px;fill:#ffffff;fill-opacity:1;stroke:none;stroke-width:1px;stroke-linecap:butt;stroke-linejoin:miter;stroke-opacity:1"
       x="613.2038"
       y="527.1413"
       id="text4565"><tspan
         sodipodi:role="line"
         id="tspan4563"
         x="613.2038"
         y="527.1413"
         style="font-style:normal;font-variant:normal;font-weight:normal;font-stretch:normal;font-size:96px;font-family:'Droid Sans';-inkscape-font-specification:'Droid Sans'">+</tspan></text>
    <g
       aria-label="= &lt;3"
       style="font-style:normal;font-variant:normal;font-weight:normal;font-stretch:normal;font-size:85.33333588px;line-height:25px;font-family:'DejaVu Sans';-inkscape-font-specification:'DejaVu Sans';letter-spacing:0px;word-spacing:0px;fill:#ffffff;fill-opacity:1;stroke:none;stroke-width:1px;stroke-linecap:butt;stroke-linejoin:miter;stroke-opacity:1"
       id="text4565-4">
      <path
         d="m 849.55267,483.84882 h 60.09375 v 7.875 h -60.09375 z m 0,19.125 h 60.09375 v 7.96875 h -60.09375 z"
         style="font-style:normal;font-variant:normal;font-weight:normal;font-stretch:normal;font-size:96px;font-family:'Droid Sans';-inkscape-font-specification:'Droid Sans'"
         id="path4497" />
      <path
         d="m 1020.6464,480.19257 -48.37498,17.20312 48.37498,17.10938 v 8.53125 l -60.09373,-21.79688 v -7.78125 l 60.09373,-21.79687 z"
         style="font-style:normal;font-variant:normal;font-weight:normal;font-stretch:normal;font-size:96px;font-family:'Droid Sans';-inkscape-font-specification:'Droid Sans'"
         id="path4499" />
      <path
         d="m 1069.7714,489.70819 q 6.7969,1.45313 10.5938,6.04688 3.8437,4.59375 3.8437,11.34375 0,10.35937 -7.125,16.03125 -7.125,5.67187 -20.25,5.67187 -4.4062,0 -9.0937,-0.89062 -4.6407,-0.84375 -9.6094,-2.57813 v -9.14062 q 3.9375,2.29687 8.625,3.46875 4.6875,1.17187 9.7969,1.17187 8.9062,0 13.5468,-3.51562 4.6875,-3.51563 4.6875,-10.21875 0,-6.1875 -4.3593,-9.65625 -4.3125,-3.51563 -12.0469,-3.51563 h -8.1563 v -7.78125 h 8.5313 q 6.9844,0 10.6875,-2.76562 3.7031,-2.8125 3.7031,-8.0625 0,-5.39063 -3.8437,-8.25 -3.7969,-2.90625 -10.9219,-2.90625 -3.8906,0 -8.3438,0.84375 -4.4531,0.84375 -9.7968,2.625 v -8.4375 q 5.3906,-1.5 10.0781,-2.25 4.7344,-0.75 8.9062,-0.75 10.7813,0 17.0625,4.92187 6.2813,4.875 6.2813,13.21875 0,5.8125 -3.3281,9.84375 -3.3282,3.98438 -9.4688,5.53125 z"
         style="font-style:normal;font-variant:normal;font-weight:normal;font-stretch:normal;font-size:96px;font-family:'Droid Sans';-inkscape-font-specification:'Droid Sans'"
         id="path4501" />
    </g>
    <path
       style="fill:#ffffff;stroke-width:4.49999094"
       inkscape:connector-curvature="0"
       d="m 594.99513,487.34702 c 0.11249,3.15718 -0.88204,4.69123 -1.78165,7.40383 l -1.61773,0.84015 c -1.32247,2.68424 0.13139,1.70414 -0.81576,3.83804 -2.0669,1.91699 -6.26309,5.99669 -7.60679,6.37018 -0.98213,-0.0449 0.66438,-1.21004 0.87957,-1.67399 -2.76381,1.9809 -2.21828,2.97405 -6.44579,4.18004 l -0.12241,-0.288 c -10.42197,5.12234 -24.90024,-5.02693 -24.70989,-18.87296 -0.11025,0.87795 -0.3168,0.65834 -0.54675,1.01115 -0.53798,-7.12304 3.15039,-14.27758 9.37124,-17.20301 6.08443,-3.1437 13.21691,-1.85536 17.57245,2.38994 -2.39218,-3.27465 -7.15768,-6.74684 -12.80157,-6.42509 -5.53139,0.0945 -10.70728,3.7647 -12.43392,7.75169 -2.83262,1.86209 -3.16291,7.18198 -4.39654,8.15668 -1.66279,12.75387 3.12412,18.26142 11.22298,24.74455 1.27116,0.8964 0.35775,1.03365 0.52799,1.71584 -2.68997,-1.31444 -5.15205,-3.30074 -7.17929,-5.73253 1.07598,1.6425 2.23578,3.23954 3.73593,4.49414 -2.53858,-0.89505 -5.92784,-6.42013 -6.91513,-6.64469 4.37273,8.17738 17.73852,14.34147 24.7414,11.28238 -3.24049,0.126 -7.35569,0.0675 -10.99393,-1.3356 -1.53265,-0.82214 -3.60827,-2.52224 -3.23671,-2.83949 9.55394,3.72554 19.42017,2.81969 27.6853,-4.09949 2.10442,-1.71181 4.40153,-4.62195 5.06609,-4.66109 -0.99968,1.57094 0.17145,0.75554 -0.5968,2.14199 2.09192,-3.52934 -0.9121,-1.4373 2.1645,-6.09479 l 1.13603,1.6335 c -0.42525,-2.93265 3.48443,-6.48944 3.08658,-11.12308 0.89708,-1.4166 0.99968,1.52595 0.0486,4.78529 1.31999,-3.61575 0.3492,-4.19759 0.68688,-7.18199 0.36405,1.0035 0.8483,2.0682 1.09476,3.12795 -0.8608,-3.49515 0.87957,-5.88419 1.31247,-7.91638 -0.42795,-0.1935 -1.32745,1.54484 -1.53517,-2.5821 0.0315,-1.79279 0.4792,-0.9396 0.65061,-1.38104 -0.33525,-0.2025 -1.21986,-1.57726 -1.75662,-4.21289 0.38655,-0.62056 1.04094,1.60603 1.57144,1.69604 -0.34154,-2.09474 -0.92834,-3.6927 -0.95336,-5.30144 -1.55142,-3.38444 -0.54927,0.45226 -1.8054,-1.45305 -1.6515,-5.37569 1.36876,-1.24784 1.57396,-3.68909 2.4998,3.78314 3.92484,9.65023 4.58189,12.07933 -0.50049,-2.96189 -1.30748,-5.83334 -2.29459,-8.60939 0.76193,0.3375 -1.22485,-6.09343 0.98964,-1.83599 -2.3634,-9.07514 -10.10653,-17.55582 -17.23182,-21.53381 0.86954,0.83205 1.96928,1.8774 1.57644,2.04209 -3.54572,-2.20184 -2.92265,-2.37554 -3.43062,-3.30569 -2.88386,-1.22714 -3.07655,0.099 -4.98463,0.002 -5.44229,-3.0159 -6.4908,-2.6955 -11.49928,-4.58279 l 0.2277,1.1133 c -3.60454,-1.25415 -4.20011,0.4734 -8.09503,0.003 -0.23626,-0.1935 1.24865,-0.7002 2.47224,-0.8847 -3.48569,0.48105 -3.32302,-0.71865 -6.73378,0.13051 0.83952,-0.61561 1.73033,-1.02466 2.62614,-1.54756 -2.84133,0.18 -6.78598,1.72755 -5.56873,0.3195 -4.63544,2.16135 -12.86908,5.19435 -17.48966,9.71954 l -0.14536,-1.01385 c -2.11693,2.65364 -9.23217,7.92673 -9.79918,11.36742 l -0.56677,0.135 c -1.09975,1.9485 -1.81417,4.15575 -2.68749,6.15869 -1.44009,2.56544 -2.11193,0.9882 -1.90673,1.3905 -2.83499,6.00299 -4.24349,11.04297 -5.45849,15.18297 0.8658,1.35269 0.0225,8.14363 0.34785,13.57827 -1.42128,26.8456 18.03911,52.9064 39.31101,58.92288 3.11788,1.16685 7.75349,1.125 11.69683,1.2402 -4.65163,-1.3905 -5.25238,-0.73575 -9.78657,-2.3859 -3.26924,-1.61009 -3.98493,-3.44609 -6.30223,-5.54578 l 0.91708,1.69199 c -4.54048,-1.68299 -2.64148,-2.07899 -6.33598,-3.30299 l 0.97965,-1.33425 c -1.47262,-0.117 -3.89982,-2.58974 -4.56299,-3.96314 l -1.6115,0.0675 c -1.93427,-2.49074 -2.96648,-4.28985 -2.89016,-5.68439 l -0.52047,0.96975 c -0.594,-1.0575 -7.12349,-9.35548 -3.73499,-7.42048 -0.63,-0.59851 -1.467,-0.9765 -2.3715,-2.7 l 0.6894,-0.82215 c -1.62773,-2.19149 -3.00023,-4.99949 -2.89515,-5.93503 0.86952,1.22579 1.47262,1.45573 2.07062,1.66634 -4.11749,-10.66813 -4.34897,-0.5868 -7.46548,-10.85893 l 0.65807,-0.054 c -0.50422,-0.79875 -0.81323,-1.65959 -1.2186,-2.50784 l 0.28755,-2.98574 c -2.96099,-3.57299 -0.82799,-15.21448 -0.40049,-21.59997 0.297,-2.59198 2.47499,-5.35948 4.13099,-9.69298 l -1.00841,-0.17999 c 1.92928,-3.5127 11.01238,-14.11153 15.22123,-13.56792 2.03814,-2.67346 -0.40546,0 -0.80451,-0.68221 4.47784,-4.83884 5.88553,-3.41818 8.90682,-4.28983 3.25674,-2.01915 -2.79628,0.7893 -1.25239,-0.76996 5.634,-1.50119 3.99114,-3.41549 11.33908,-4.17734 0.77571,0.4599 -1.79788,0.711 -2.44349,1.30815 4.6917,-2.39939 14.84997,-1.85175 21.451,1.3302 7.65313,3.73859 16.25757,14.78427 16.59777,25.177 l 0.38655,0.10799 c -0.1953,4.1319 0.60556,8.91044 -0.78444,13.29883 l 0.93961,-2.07899"
       id="path3032" />
  </g>
</svg>
